{
  "limit": 2,
  "offset": 4,
  "total": 5,
  "totalPages": 3,
  "currentPage": 3,
  "topics": [
	{
	  "_id": "5eeed8d074938f2b1bae1d5c",
	  "_key": "topic:37",
	  "amount": 12,
	  "brand": "AMAZON BOOK",
	  "cid": 2,
	  "coupon": "HARRYPOTTER",
	  "currency": "VND - VIET NAM",
	  "dealUrl": "https://www.amazon.com/Harry-Potter-Goblet-Fire-Illustrated/dp/0545791421?tag=slickdeals09-20&ascsubtag=925c2ac6b37111eaaac6aeddf160804c0INT",
	  "discountMoney": 80000,
	  "discountPercentage": 40,
	  "discountPrice": 120000,
	  "expiredAt": 1592327700000,
	  "expiredDate": "17-06-2020",
	  "expiredTime": "12:15 AM",
	  "lastposttime": 1592711726663,
	  "mainPid": "48",
	  "maxDiscount": null,
	  "minOrder": 3,
	  "postcount": 3,
	  "price": 200000,
	  "sku": "SKUSTRING",
	  "slug": "37/harry-potter-and-the-goblet-of-fire-the-illustrated-edition-hardcover-book",
	  "thumb": "http://127.0.0.1:4567/assets/uploads/files/1592847792328-11.jpg",
	  "tid": 37,
	  "timestamp": 1592711372913,
	  "title": "Harry Potter and the Goblet of Fire: The Illustrated Edition (Hardcover Book)",
	  "uid": 3,
	  "viewcount": 32,
	  "teaserPid": 50,
	  "images": [
		"http://127.0.0.1:4567/assets/uploads/files/1592848227777-11.jpg",
		"https://i.pinimg.com/originals/7b/bb/19/7bbb19a5afada8428f3921233f91be4f.jpg"
	  ],
	  "locked": 0,
	  "categoryName": "Thảo luận chung"
	}
  ]
}