{
  "limit": 2,
  "offset": 4,
  "total": 15,
  "totalPages": 8,
  "currentPage": 3,
  "topics": [
	{
	  "_id": "5ebffb11401e010c0648fb41",
	  "_key": "topic:7",
	  "cid": 1,
	  "lastposttime": 1589639934971,
	  "mainPid": 12,
	  "postcount": 1,
	  "slug": "7/nodebb-upgrade",
	  "tid": 7,
	  "timestamp": 1589639934971,
	  "title": "Nodebb upgrade",
	  "uid": 5,
	  "viewcount": 8,
	  "categoryName": "Thông báo"
	},
	{
	  "_id": "5ec3e0b1b7edbf4e96ef96b3",
	  "_key": "topic:8",
	  "cid": 2,
	  "lastposttime": 1592501103476,
	  "mainPid": "13",
	  "postcount": 3,
	  "slug": "8/test-image-upload",
	  "thumb": "https://www.mobafire.com/images/avatars/sona-classic.png",
	  "tid": 8,
	  "timestamp": 1589895342265,
	  "title": "Test image upload",
	  "uid": 3,
	  "viewcount": 29,
	  "amount": null,
	  "brand": "",
	  "coupon": "",
	  "currency": "",
	  "dealUrl": "",
	  "discountMoney": null,
	  "discountPercentage": null,
	  "expiredDate": "13-06-2020",
	  "maxDiscount": null,
	  "minOrder": null,
	  "price": null,
	  "sku": "",
	  "discountPrice": null,
	  "expiredAt": 1591981200000,
	  "expiredTime": "12:00 AM",
	  "teaserPid": 45,
	  "images": [
		"https://c8.alamy.com/comp/MR5J6Y/ripening-apricot-fruits-on-a-twigimge-of-a-MR5J6Y.jpg",
		"https://www.artistaday.com/wp-content/uploads/imgeozbilge_243243243_large.jpg"
	  ],
	  "categoryName": "Thảo luận chung"
	}
  ]
}